Using egor to analyse ego-centered network data
…
summary(e1)
#> 32 Egos/ Ego Networks 
#> 384 Alters 
#> Min. Netsize 12 
#> Average Netsize 12 
#> Max. Netsize 12 
#> Average Density 0.5 
#> Alter survey design:
#>   Maximum nominations: Inf

Density

ego_density(e1)
#> # A tibble: 32 × 2
#>    .egoID density
#>     <dbl>   <dbl>
#>  1      1   0.485
#>  2      2   0.5  
#>  3      3   0.5  
#>  4      4   0.409
#>  5      5   0.561
#>  6      6   0.455
#>  7      7   0.652
#>  8      8   0.485
#>  9      9   0.515
#> 10     10   0.515
#> # ℹ 22 more rows
…
6
0.1666667
0.0833333
0.2500000
NA
0.2500000
0.0833333
0.1666667

Diversity

alts_diversity_count(e1, "age")
#> # A tibble: 32 × 2
#>    .egoID diversity
#>     <dbl>     <dbl>
#>  1      1         5
#>  2      2         5
#>  3      3         6
#>  4      4         6
#>  5      5         5
#>  6      6         6
#>  7      7         5
#>  8      8         5
#>  9      9         5
#> 10     10         5
#> # ℹ 22 more rows
alts_diversity_entropy(e1, "age")
#> # A tibble: 32 × 2
#>    .egoID entropy
#>     <dbl>   <dbl>
#>  1      1    2.19
#>  2      2    2.19
#>  3      3    2.42
#>  4      4    2.36
#>  5      5    2.19
#>  6      6    2.46
#>  7      7    2.08
#>  8      8    2.13
#>  9      9    2.19
#> 10     10    2.19
#> # ℹ 22 more rows

Ego-Alter Homophily (EI-Index)

comp_ei(e1, "age", "age")
#> # A tibble: 32 × 2
#>    .egoID    ei
#>     <dbl> <dbl>
#>  1      1 0.833
#>  2      2 1    
#>  3      3 0.333
#>  4      4 0.833
#>  5      5 0.5  
#>  6      6 0.667
#>  7      7 0.333
#>  8      8 0.333
#>  9      9 1    
#> 10     10 0.333
#> # ℹ 22 more rows
…
Count attribute combinations in alter-alter ties/ dyads

# return results as "wide" tibble
  count_dyads(
    object = e1,
    alter_var_name = "country"
  )
#> # A tibble: 32 × 11
#>    .egoID dy_cou_Australia_Austr…¹ dy_cou_Australia_Ger…² dy_cou_Australia_Pol…³
#>     <dbl>                    <int>                  <int>                  <int>
#>  1      1                        2                      6                      3
#>  2      2                        0                      2                      0
#>  3      3                        4                      6                      4
#>  4      4                        1                      1                      1
#>  5      5                        2                     11                      4
#>  6      6                        2                      1                      1
#>  7      7                        0                      5                      7
#>  8      8                        1                      7                      1
#>  9      9                        1                      6                      4
#> 10     10                        0                      3                      1
#> # ℹ 22 more rows
#> # ℹ abbreviated names: ¹​dy_cou_Australia_Australia, ²​dy_cou_Australia_Germany,
#> #   ³​dy_cou_Australia_Poland
#> # ℹ 7 more variables: dy_cou_Australia_USA <int>, dy_cou_Germany_Germany <int>,
#> #   dy_cou_Germany_Poland <int>, dy_cou_Germany_USA <int>,
#> #   dy_cou_Poland_USA <int>, dy_cou_USA_USA <int>, dy_cou_Poland_Poland <int>

# return results as "long" tibble
  count_dyads(
    object = e1,
    alter_var_name = "country",
    return_as = "long"
  )
#> # A tibble: 278 × 3
#>    .egoID dyads                   n
#>     <dbl> <chr>               <int>
#>  1      1 Australia_Australia     2
#>  2      1 Australia_Germany       6
#>  3      1 Australia_Poland        3
#>  4      1 Australia_USA           3
#>  5      1 Germany_Germany         3
#>  6      1 Germany_Poland          4
#>  7      1 Germany_USA             6
#>  8      1 Poland_USA              2
#>  9      1 USA_USA                 3
#> 10      2 Australia_Germany       2
#> # ℹ 268 more rows
…
